%YAML 1.1
%TAG !u! tag:unity3d.com,2011:
--- !u!114 &11400000
MonoBehaviour:
  m_ObjectHideFlags: 0
  m_CorrespondingSourceObject: {fileID: 0}
  m_PrefabInstance: {fileID: 0}
  m_PrefabAsset: {fileID: 0}
  m_GameObject: {fileID: 0}
  m_Enabled: 1
  m_EditorHideFlags: 0
  m_Script: {fileID: 11500000, guid: 46f06b30822226248a41f60a247a8fd7, type: 3}
  m_Name: BoitesCarton
  m_EditorClassIdentifier: 
  texte_point_culture: "Avec 4 bo\xEEtes en carton de c\xE9r\xE9ales recycl\xE9es,
    on fabrique 1 bo\xEEte \xE0 chaussures."
  audio_point_culture: {fileID: 8300000, guid: 679f7f18901397446a8b0d999758cd43, type: 3}
  image_point_culture: {fileID: 0}
