%YAML 1.1
%TAG !u! tag:unity3d.com,2011:
--- !u!114 &11400000
MonoBehaviour:
  m_ObjectHideFlags: 0
  m_CorrespondingSourceObject: {fileID: 0}
  m_PrefabInstance: {fileID: 0}
  m_PrefabAsset: {fileID: 0}
  m_GameObject: {fileID: 0}
  m_Enabled: 1
  m_EditorHideFlags: 0
  m_Script: {fileID: 11500000, guid: 8b73625736b5f6047b8e54b4fc8eafda, type: 3}
  m_Name: Toaster
  m_EditorClassIdentifier: 
  nom: un toaster
  description: Un grille pain (electromenager)
  material: 4
  model: {fileID: -927199367670048503, guid: 199c86e4ac60e214293c7c08d795bacf, type: 3}
  relativePosition: {x: 0, y: 0, z: 0}
  rotation: {x: 0, y: 100, z: 0}
  localScale: {x: 0.01, y: 0.01, z: 0.01}
  presentationClip: {fileID: 8300000, guid: 4797c44ff138aec4d83d456a4caab042, type: 3}
  failure1: {fileID: 8300000, guid: d9ced3c7590bc6b4fbfa1425ebd7f333, type: 3}
  failure2: {fileID: 8300000, guid: f64015288a28c2b4b9363571ac596320, type: 3}
  rappel: {fileID: 8300000, guid: b98c4218ff9c5d9488e433a8541bd099, type: 3}
